x,y
3.395832607,23.47368341
23.93154689,21.36842025
24.82440404,25.84210446
25.89583261,28.9999992
27.50297546,32.94736762
22.68154689,31.36842025
23.39583261,32.94736762
24.28868975,55.57894657
28.39583261,65.84210446
33.93154689,67.42105183
35.71726118,69.26315709
31.61011832,59.52631499
35.53868975,61.10526235
38.75297546,62.68420972
40.71726118,65.05263078
46.61011832,67.15789393
45.00297546,57.15789393
46.61011832,54.26315709
42.68154689,42.15789393
44.82440404,44.78947288
35.71726118,57.15789393
32.68154689,50.05263078
33.93154689,46.63157814
37.68154689,49.26315709
30.00297546,43.7368413
29.82440404,41.10526235
31.25297546,42.15789393
33.03868975,42.68420972
33.75297546,39.52631499
34.46726118,36.63157814
31.96726118,32.42105183
31.96726118,23.7368413
36.61011832,13.9999992
40.71726118,17.15789393
41.96726118,19.52631499
43.93154689,27.15789393
43.75297546,31.63157814
46.96726118,12.68420972
52.68154689,10.84210446
21.43154689,11.10526235
27.50297546,2.947367618
56.07440404,23.7368413
54.82440404,25.57894657
55.71726118,30.57894657
53.39583261,32.42105183
55.00297546,33.21052551
57.32440404,32.68420972
54.28868975,38.21052551
52.86011832,40.84210446
54.82440404,40.84210446
52.68154689,58.7368413
55.89583261,67.42105183
60.89583261,65.05263078
65.00297546,65.57894657
65.18154689,80.31578867
70.36011832,77.68420972
57.50297546,37.94736762
60.71726118,26.89473604
62.14583261,29.26315709
57.50297546,9.526314986
56.96726118,11.63157814
59.46726118,11.89473604
61.07440404,13.7368413
62.32440404,13.47368341
61.78868975,17.94736762
64.11011832,14.78947288
64.46726118,11.10526235
60.71726118,6.894736039
70.89583261,3.999999197
75.53868975,5.84210446
81.96726118,3.210525513
75.89583261,16.63157814
74.46726118,21.10526235
69.11011832,24.52631499
77.68154689,19.52631499
72.86011832,36.63157814
82.14583261,31.63157814
85.71726118,28.47368341
98.93154689,0.315788671
98.93154689,0.315788671
99.28868975,97.94736762
99.46726118,98.21052551
