Pos,Gls,Ast,xG,xA
MF,0,0,0,0
FWMF,0,0,0.2,0
DFMF,0,1,0.2,0.9
MF,0,0,0,0.4
MF,0,0,0,0
MF,1,0,1.3,0.6
MFFW,1,1,0.8,0.5
MFFW,1,2,1.5,1.2
MF,0,0,0,0
MF,0,0,0,0.1
MFDF,0,0,0.2,0.9
MF,0,0,0.4,0.1
MF,3,0,1.6,1.6
FWMF,0,0,0,0
FWDF,0,0,0,0
MFFW,0,0,0,0
MFDF,0,0,0.2,0
MF,0,0,0.1,0.1
MFFW,1,0,1.5,0.6
MFFW,1,2,2.3,0.9
MFFW,1,3,1.4,1.7
MFFW,3,0,1.4,1.6
MF,0,0,0.7,0
FWMF,0,0,0.5,0.2
MF,3,0,1.3,0.2
FWMF,7,3,5.3,3.1
MF,1,0,0.8,0.4
MF,0,0,0,0.1
MF,1,0,0.7,0.1
MF,0,0,0,0
MF,0,0,0.1,0
MF,0,0,0,0
MFFW,3,2,2.3,3.9
MF,0,0,0,0
MF,0,3,0,2.7
MF,1,2,1.4,1.4
MFFW,7,6,4.9,4.2
MF,0,0,0.1,0.1
FWMF,0,0,0.2,0
MFFW,0,1,0.5,0.3
DFMF,3,4,3,3.7
MF,2,0,1.1,0.5
MF,5,2,3.5,2.3
DFMF,0,0,0,0.1
MF,0,2,1.5,1.9
MFFW,1,2,1.4,2.2
MF,0,0,0.2,0.5
MF,0,0,0,0.3
FWMF,0,0,0.1,0
FWMF,4,7,4.7,4
DFMF,0,1,0.1,0.3
MFFW,2,2,3.9,0.9
MF,0,0,0,0
FWMF,2,3,2.5,1.1
MFFW,3,1,1.7,2.4
MFFW,0,0,0.9,0
MF,0,0,0.3,0.1
MF,1,1,1.4,1
MF,0,0,0,0
MF,0,0,0.4,0
FWMF,1,1,0.9,1.1
MF,0,0,0,0.1
MF,0,2,2.8,2.5
DFMF,0,0,0.7,0.7
MFFW,3,6,7.2,4.1
FWMF,7,4,4.9,3.4
MF,4,1,3.2,1.8
MF,0,0,0,0
MF,0,3,0.1,2.2
MFFW,2,4,1.7,4.4
MFDF,4,3,2.6,3.9
MF,0,0,0,0
DFMF,0,0,0.1,0.2
MFFW,4,7,3,4.5
MF,0,1,0.2,0.8
MFFW,1,0,1.2,1.1
MF,0,1,0.4,0.4
MF,0,0,0.5,0.2
DFMF,1,0,0.1,0.2
FWMF,4,1,5.3,1.3
MFFW,3,4,3.3,4.3
MF,0,0,0,0
FWMF,2,1,1.4,0
MF,0,0,0,0
MFFW,3,0,3.8,2.2
FWMF,1,0,0.6,0.3
FWMF,0,1,0.5,0.6
MF,0,1,0.1,0.5
MF,0,0,0,0
MF,0,0,0,0
FWMF,8,6,10.5,4.8
MF,0,0,0.3,0.5
MFDF,0,0,0.1,0
MFFW,2,4,2.2,2.5
MF,1,1,0.3,0.5
MF,0,1,0.7,0.6
MF,2,0,1.4,0.1
MF,0,0,0.1,0.2
MF,3,1,1.8,0.9
DFFW,0,4,0.4,2.4
MF,0,0,0.1,0
MF,0,0,0.2,0.2
FWMF,0,0,0.3,0
MFDF,1,2,0.6,0.6
MF,0,0,0,0
MFFW,1,0,2.3,1.9
MFFW,0,1,1.4,1.2
MFDF,1,0,0.6,0.5
FWMF,2,2,3.3,2.3
MFDF,0,0,0.2,0.6
FWMF,5,0,4.5,1
FWMF,2,4,0.9,2.1
MFDF,0,0,0.1,0
MFDF,3,4,3.8,3.4
MFFW,0,1,0.7,2.1
MF,1,6,1.4,2.6
MFDF,4,2,1.5,1.3
MF,0,1,0.6,1.5
FWMF,0,0,1.1,0.1
FWMF,2,0,3,0.1
MF,0,0,0.6,1.3
FWMF,0,0,0.1,0
FWMF,0,4,1,2.4
FWMF,3,2,1.9,1.9
MF,0,0,0,0
FWMF,0,0,0.5,0.1
FWMF,1,0,0.8,0
MF,0,0,0,0
MF,1,2,1.4,2
MFFW,0,0,0.1,0.3
MF,0,0,0.1,0
DFFW,0,0,0,0
MF,3,8,2.2,6.2
MFFW,0,0,1.4,0.5
MFFW,0,1,0.6,0.7
MF,0,1,0,0.1
FWMF,0,1,0.8,0.7
MFFW,0,0,0,0
MF,1,3,1.2,1.9
MFFW,1,1,0.6,1.9
MFDF,9,8,3.1,2.8
FWMF,1,1,1.3,0.7
DFMF,0,0,0.1,0.1
MF,3,0,0.8,0.9
MF,3,0,0.9,0.9
FWMF,10,3,7.1,3.3
MFDF,0,0,0,0
FWMF,2,4,3.4,3.2
MF,0,0,0,0
MF,1,0,1.5,0.6
FWMF,0,1,0.4,0
MF,0,0,1,0.3
MF,0,0,0.1,0.4
DFMF,1,2,1.3,1.5
MF,0,0,0.2,0.4
DFMF,0,0,0.1,0.5
MF,0,0,0,0.1
DFFW,0,0,0,0
MFFW,4,1,2.1,1.6
MFFW,5,0,5.3,1.4
MFFW,4,1,3.6,1
MF,2,4,3.7,2.1
FWMF,0,0,1,1.4
MF,1,0,1.4,0.9
MF,0,0,0,0
MF,2,0,0.3,0.4
DFMF,0,0,0.5,0
MF,1,1,0.5,2.1
FWMF,3,1,4.5,0.6
MF,3,3,2.2,3.3
FWMF,5,2,4,1.4
MFDF,0,0,0,0.1
MF,2,0,0.9,0.8
MF,1,1,1.2,1.6
FWMF,0,0,0.3,0.2
FWMF,0,2,1,2.1
MF,0,0,0,0
MFFW,2,4,2,2
FWMF,1,0,2.2,0.4
MF,0,0,0.3,0.6
MFFW,5,3,3.9,2.9
MF,1,0,0.6,0.8
FWMF,1,1,1.7,1.1
FWMF,0,0,0,0
MF,0,0,0,0
FWMF,0,0,0.1,0
FWMF,0,0,0.3,0
MFDF,2,0,2.1,0.9
MFFW,0,0,0.3,0.8
MFFW,6,5,5.5,5.6
MFFW,0,0,0,0
MFDF,0,2,0.5,1.7
MF,0,1,0,0.2
FWMF,2,1,1.9,1.6
MFFW,5,2,5,3
FWMF,10,7,10.3,5
MFFW,0,0,0,0.1
MF,3,2,1.3,4.4
MF,0,0,0.1,0
MF,2,3,2.3,4.6
MF,0,0,0.3,0
DFFW,1,0,0.5,0.2
MF,1,2,1.1,2
MFDF,0,0,0.4,0.6
MF,0,0,0.9,0.9
FWMF,0,0,0.1,0.1
MF,1,0,0.5,0.2
FWMF,1,1,0.6,0.7
MF,0,0,1.2,0.8
MFFW,3,4,2.6,1.2
FWMF,1,0,1.3,0.4
MF,0,0,0.3,0.8
MFFW,0,1,0,0.5
FWMF,7,3,4.6,4.9
DFMF,0,0,0.3,0.8
FWMF,1,4,3.4,1.6
MF,1,0,0.3,0.1
MF,2,0,0.2,0.1
FWMF,0,0,0.1,0
MF,0,0,0.1,0
MF,1,0,1.3,0.3
MF,0,2,0.3,0.3
MF,1,1,2.8,0.9
FWMF,4,1,1.7,0.1
MF,0,0,0.3,0.1
MF,0,0,0,0
MF,1,2,1.9,1.3
MFFW,1,1,1.9,1.9
MFDF,2,1,2.7,2.3
DFMF,1,2,0.4,1.7
MF,0,1,1.6,1.8
FWMF,0,0,0.1,0.4
DFMF,1,1,0.6,0.6
MFFW,0,0,0.4,0.8
FWMF,5,0,4.5,0.5
MF,1,0,1,0.5
FWMF,0,0,0,0
MF,0,0,0,0.5
FWMF,1,1,1.4,2.1
MF,0,0,0,0
MFFW,1,0,1.1,0.4
MFFW,2,0,1.9,1.2
MF,0,0,0.1,0.1
FWMF,1,1,1.4,0.7
DFMF,0,0,0,0
MF,0,2,0.6,1.7
MF,1,1,1.2,0.9
MF,0,0,0,0
MF,1,4,1.3,3.4
MFFW,0,0,0,0
FWMF,0,0,0.6,0.5
MF,0,2,0,1.2
MF,7,5,7.9,3.2
DFMF,0,0,0.5,0.7
FWMF,1,2,0.7,0.2
MF,0,5,0.7,2.9
MF,0,1,0.7,0.4
MFDF,0,0,0,0
FWMF,5,3,2,2.6
MFDF,0,0,0.4,0.7
MFFW,1,0,0.2,0.6
MFFW,0,2,0.6,1.6
MFFW,4,1,2.7,1
MF,0,1,0.7,0.5
MF,1,5,2.6,3.1
FWMF,3,2,3.1,1
FWMF,0,0,0,0.1
MF,3,1,1.8,2.8
FWMF,1,0,0.3,0.2
DFFW,2,5,2.2,4.3
MFDF,0,0,0,0
MF,0,0,0.4,0.1
MF,0,1,1.4,0.8
FWMF,0,0,0.3,0.2
MFFW,2,0,0.8,0.8
MFDF,0,0,0.5,0.2
MF,0,0,0.1,0.2
MFDF,4,1,3,2.2
MF,0,0,0.4,0.3
MF,0,0,0.1,0
MF,0,0,0.5,0.2
MFFW,0,0,0.1,0.4
